{
  "project_info": {
    "project_number": "749878139030",
    "project_id": "book-app-7dfa3",
    "storage_bucket": "book-app-7dfa3.appspot.com"
  },
  "client": [
    {
      "client_info": {
        "mobilesdk_app_id": "1:749878139030:android:7a8f62673179e2fc468ab7",
        "android_client_info": {
          "package_name": "com.example.mangaonline"
        }
      },
      "oauth_client": [
        {
          "client_id": "749878139030-kar1iefkks7dbmqid22ihlcqh80b1k0r.apps.googleusercontent.com",
          "client_type": 3
        }
      ],
      "api_key": [
        {
          "current_key": "AIzaSyD2NwGlZUa8xvEpLuo_EFOQvB0CDLoyFdo"
        }
      ],
      "services": {
        "appinvite_service": {
          "other_platform_oauth_client": [
            {
              "client_id": "749878139030-kar1iefkks7dbmqid22ihlcqh80b1k0r.apps.googleusercontent.com",
              "client_type": 3
            }
          ]
        }
      }
    }
  ],
  "configuration_version": "1"
}